Division,WeightClassKg,Place,Name,Team,BodyweightKg,Best3SquatKg,Best3BenchKg,Best3DeadliftKg,TotalKg,Equipment,Event,Sex,BirthDate
Boys,51.71,1,Ricardo Barron,Perryton,50.76,111.13,74.84,117.93,303.91,Unlimited,SBD,M,
Boys,51.71,DQ,Xavier Sandoval,Canyon Randall,50.89,,,,,Unlimited,SBD,M,
Boys,55.79,1,Josh Lawrence,Dumas,55.66,190.51,92.99,181.44,464.93,Unlimited,SBD,M,
Boys,55.79,2,Edward Rocha,Perryton,55.75,151.95,79.38,156.49,387.82,Unlimited,SBD,M,
Boys,55.79,3,Colton Grubb,Kress,55.75,104.33,63.5,124.74,292.57,Unlimited,SBD,M,
Boys,55.79,DQ,Francisco Gutierrez,Friona,54.66,,,,,Unlimited,SBD,M,
Boys,59.87,1,Isael Venegas,Canyon West Plains,58.88,158.76,81.65,156.49,396.89,Unlimited,SBD,M,
Boys,59.87,2,Adrian Castillo,Kress,59.56,136.08,90.72,142.88,369.68,Unlimited,SBD,M,
Boys,59.87,3,Landon Holcomb,Canyon Randall,59.83,136.08,88.45,138.35,362.87,Unlimited,SBD,M,
Boys,59.87,4,Charlie Montgomery,Vega,57.11,131.54,81.65,142.88,356.07,Unlimited,SBD,M,
Boys,59.87,5,Miguel Alvarez,Kress,59.78,127.01,63.5,156.49,347,Unlimited,SBD,M,
Boys,59.87,6,Landon Cousins,Vega,59.56,102.06,70.31,124.74,297.1,Unlimited,SBD,M,
Boys,59.87,7,Nickolas Cervantes,Lockney,57.61,120.2,61.23,111.13,292.57,Unlimited,SBD,M,
Boys,59.87,DQ,Leo Rojas,Kress,59.83,,,,,Unlimited,SBD,M,
Boys,59.87,DQ,Johnny Aguilar,Kress,58.06,,,,,Unlimited,SBD,M,
Boys,59.87,DQ,Zay Reyes,Kress,58.33,,,,,Unlimited,SBD,M,
Boys,67.13,1,Abel Lucero,Perryton,66.68,183.7,113.4,197.31,494.42,Unlimited,SBD,M,
Boys,67.13,2,Cole Kelso,Dalhart,64.32,174.63,95.25,179.17,449.06,Unlimited,SBD,M,
Boys,67.13,3,Adrian Martinez,Vega,65.36,170.1,97.52,174.63,442.25,Unlimited,SBD,M,
Boys,67.13,4,Gael Lara,Friona,66.68,163.29,108.86,163.29,435.45,Unlimited,SBD,M,
Boys,67.13,5,Jose Vargas,Dumas,66.36,174.63,90.72,161.03,426.38,Unlimited,SBD,M,
Boys,67.13,6,Devion Ellis,Kress,62.91,131.54,77.11,154.22,362.87,Unlimited,SBD,M,
Boys,67.13,DQ,Christian Gonzalez,Dumas,67.09,,,,,Unlimited,SBD,M,
Boys,67.13,DQ,Lane Hoppe,Dalhart,66.45,,,,,Unlimited,SBD,M,
Boys,74.84,1,Oliver Garcia,Dumas,73.39,242.67,115.67,219.99,578.33,Unlimited,SBD,M,
Boys,74.84,2,Ramon Ortiz,Friona,70.62,215.46,120.2,219.99,555.65,Unlimited,SBD,M,
Boys,74.84,3,Kaiden Miller,Canyon Randall,74.34,172.37,136.08,201.85,510.29,Unlimited,SBD,M,
Boys,74.84,4,Shooter Coon,Dumas,71.67,204.12,117.93,174.63,496.68,Unlimited,SBD,M,
Boys,74.84,5,Kade Speer,Dalhart,69.08,183.7,120.2,188.24,492.15,Unlimited,SBD,M,
Boys,74.84,6,Darrin Jimenez,Lockney,74.16,188.24,127.01,163.29,478.54,Unlimited,SBD,M,
Boys,74.84,7,Xane Garcia,Kress,73.57,179.17,90.72,206.38,476.27,Unlimited,SBD,M,
Boys,74.84,8,David Harper,Canyon,70.9,158.76,102.06,183.7,444.52,Unlimited,SBD,M,
Boys,74.84,9,Cason Lamm,Vega,71.08,176.9,97.52,167.83,442.25,Unlimited,SBD,M,
Boys,74.84,10,Kayden Soliz,Canyon Randall,71.12,158.76,97.52,165.56,421.84,Unlimited,SBD,M,
Boys,74.84,11,Michael Alvarez,Friona,74.48,149.69,95.25,161.03,405.97,Unlimited,SBD,M,
Boys,74.84,DQ,Mario Molina,Friona,73.71,,,,,Unlimited,SBD,M,
Boys,82.1,1,Carson Barclay,Canyon Randall,81.92,222.26,111.13,217.72,551.11,Unlimited,SBD,M,
Boys,82.1,2,Walker TeVelde,Vega,78.88,185.97,127.01,163.29,476.27,Unlimited,SBD,M,
Boys,82.1,3,Caleb Tunnel,Canyon,78.15,165.56,102.06,172.37,439.98,Unlimited,SBD,M,
Boys,82.1,4,Kade Field,Canyon Randall,77.25,156.49,102.06,156.49,415.04,Unlimited,SBD,M,
Boys,82.1,DQ,Eidan Loera,Dumas,78.43,,,,,Unlimited,SBD,M,
Boys,89.81,1,Rhilar Satterfield,Canyon Randall,89.31,229.06,151.95,226.8,607.81,Unlimited,SBD,M,
Boys,89.81,2,Brody Tupin,Canyon West Plains,87.14,213.19,122.47,204.12,539.77,Unlimited,SBD,M,
Boys,89.81,3,Charlie Gomez,Dumas,88.68,206.38,136.08,197.31,539.77,Unlimited,SBD,M,
Boys,89.81,4,Isaac Huerta,Dumas,86.73,197.31,127.01,197.31,521.63,Unlimited,SBD,M,
Boys,89.81,5,Ace Giesbrecht,Canyon West Plains,88.59,213.19,122.47,183.7,519.36,Unlimited,SBD,M,
Boys,89.81,6,Jerry Hernandez,Perryton,84.46,172.37,111.13,176.9,460.4,Unlimited,SBD,M,
Boys,89.81,7,Mason Larkin,Vega,83.51,154.22,95.25,172.37,421.84,Unlimited,SBD,M,
Boys,89.81,8,Levi Mullins,Canyon,84.23,142.88,102.06,124.74,369.68,Unlimited,SBD,M,
Boys,89.81,DQ,Jaden Guajardo,Canyon Randall,89.22,,,,,Unlimited,SBD,M,
Boys,89.81,DQ,Hugo Morales,Canyon Randall,82.92,,,,,Unlimited,SBD,M,
Boys,99.79,1,Zavian Quiroga,Dumas,98.66,226.8,156.49,222.26,605.55,Unlimited,SBD,M,
Boys,99.79,2,Matthew McBride,Canyon West Plains,95.62,215.46,120.2,226.8,562.45,Unlimited,SBD,M,
Boys,99.79,3,Jaime Barron,Perryton,98.34,206.38,138.35,183.7,528.44,Unlimited,SBD,M,
Boys,99.79,4,Nolan Wilson,Canyon Randall,96.62,183.7,113.4,183.7,480.81,Unlimited,SBD,M,
Boys,109.77,1,Peyton Correa,Canyon Randall,107.46,204.12,113.4,197.31,514.83,Unlimited,SBD,M,
Boys,109.77,2,Ivan Mercado,Perryton,100.56,192.78,113.4,170.1,476.27,Unlimited,SBD,M,
Boys,109.77,3,Keelyn Guest,Dumas,106.19,188.24,92.99,185.97,467.2,Unlimited,SBD,M,
Boys,109.77,DQ,Eden Mills,Friona,101.7,,,,,Unlimited,SBD,M,
Boys,124.74,1,Keegan Ireland,Dumas,113.9,340.19,195.04,297.1,832.34,Unlimited,SBD,M,
Boys,124.74,2,Juan Jimenez,Dumas,119.84,251.74,142.88,210.92,605.55,Unlimited,SBD,M,
Boys,124.74,3,Gael Cardenas,Dumas,116.53,222.26,138.35,215.46,576.06,Unlimited,SBD,M,
Boys,124.74,4,Drew Fisher,Dalhart,117.44,226.8,145.15,190.51,562.45,Unlimited,SBD,M,
Boys,124.74,5,Julio Escobar,Friona,113.76,204.12,108.86,195.04,508.02,Unlimited,SBD,M,
Boys,124.74,6,Mark Gomez,Canyon,113.35,192.78,111.13,197.31,501.22,Unlimited,SBD,M,
Boys,124.74,7,Dalen Clift,Canyon,120.2,204.12,120.2,172.37,496.68,Unlimited,SBD,M,
Boys,124.74,8,Aaron Venzor,Dumas,116.12,183.7,115.67,195.04,494.42,Unlimited,SBD,M,
Boys,124.74,DQ,Paul Cody,Kress,110.27,,,,,Unlimited,SBD,M,
Boys,124.74,DQ,Adam Cross,Canyon,113.85,,,,,Unlimited,SBD,M,
Boys,139.71,1,Damian Benavidez,Canyon West Plains,131.9,272.16,172.37,224.53,669.05,Unlimited,SBD,M,
Boys,139.71,2,Landry Anderson,Perryton,125.01,179.17,104.33,174.63,458.13,Unlimited,SBD,M,
Boys,139.71,3,Jose Salazar,Lockney,126.42,188.24,106.59,156.49,451.32,Unlimited,SBD,M,
Boys,139.71,4,Brandon Trujillo,Vega,127.96,170.1,97.52,158.76,426.38,Unlimited,SBD,M,
Boys,139.71,5,Lionel Gardea,Friona,127.96,106.59,102.06,142.88,351.53,Unlimited,SBD,M,
Boys,139.71+,1,Jae Harrison,Canyon West Plains,160.66,226.8,158.76,251.74,637.3,Unlimited,SBD,M,
