Division,WeightClassKg,Place,Name,Team,BodyweightKg,Best3SquatKg,Best3BenchKg,Best3DeadliftKg,TotalKg,Equipment,Event,Sex,BirthDate
Boys,51.71,1,Korbyn Carver,Fruitvale,47.9,102.06,52.16,120.2,274.42,Unlimited,SBD,M,
Boys,51.71,2,Jaxon Black,Pollok Central,49.99,111.13,72.57,129.27,312.98,Unlimited,SBD,M,
Boys,55.79,1,Carter Sullivan,Kemp,55.34,129.27,95.25,147.42,371.95,Unlimited,SBD,M,
Boys,55.79,2,Caleb Norton,Pollok Central,53.52,136.08,97.52,129.27,362.87,Unlimited,SBD,M,
Boys,55.79,3,Daniel Perales,Dallas A+,55.7,111.13,70.31,136.08,317.51,Unlimited,SBD,M,
Boys,55.79,4,Kevin Tamayo,Dallas A+,53.34,113.4,56.7,138.35,308.44,Unlimited,SBD,M,
Boys,55.79,5,Braden Dickerson,Crandall,53.52,111.13,77.11,117.93,306.17,Unlimited,SBD,M,
Boys,55.79,6,Damian Suarez,Kemp,54.61,120.2,61.23,124.74,306.17,Unlimited,SBD,M,
Boys,55.79,7,Jeremiah Smith,Crandall,52.34,104.33,61.23,108.86,274.42,Unlimited,SBD,M,
Boys,55.79,8,Hunter Nobora,Groesbeck,55.52,95.25,63.5,108.86,267.62,Unlimited,SBD,M,
Boys,55.79,9,Landon Villatoro,Mexia,53.71,104.33,47.63,108.86,260.82,Unlimited,SBD,M,
Boys,59.87,1,Cayme Ainsleigh,North Forney,58.6,136.08,77.11,136.08,349.27,Unlimited,SBD,M,
Boys,59.87,2,Peyton Scurlock,Terrell,57.97,113.4,70.31,136.08,319.78,Unlimited,SBD,M,
Boys,59.87,3,Legend McLean,Groesbeck,58.06,127.01,68.04,124.74,319.78,Unlimited,SBD,M,
Boys,59.87,4,Koby Rozell,Scurry-Rosser,59.78,108.86,70.31,113.4,292.57,Unlimited,SBD,M,
Boys,59.87,5,Cody Reed,Pollok Central,56.97,102.06,68.04,120.2,290.3,Unlimited,SBD,M,
Boys,59.87,6,Gage McQuay,Wortham,55.97,113.4,65.77,102.06,281.23,Unlimited,SBD,M,
Boys,59.87,7,Jose Castillo,Dallas A+,59.78,83.91,58.97,129.27,272.16,Unlimited,SBD,M,
Boys,67.13,1,Erick Rivera,Mexia,66.13,183.7,108.86,167.83,460.4,Unlimited,SBD,M,
Boys,67.13,2,Brian Carter,Mexia,67.04,154.22,102.06,197.31,453.59,Unlimited,SBD,M,
Boys,67.13,3,Tyler Redd,Pollok Central,65.68,156.49,97.52,158.76,412.77,Unlimited,SBD,M,
Boys,67.13,4,Marcus Keen,Midlothian Heritage,65.41,140.61,92.99,165.56,399.16,Unlimited,SBD,M,
Boys,67.13,5,Hunter Garner,Groesbeck,66.32,151.95,77.11,147.42,376.48,Unlimited,SBD,M,
Boys,67.13,6,Brysen Coleman,Nevada Community,66.86,138.35,74.84,154.22,367.41,Unlimited,SBD,M,
Boys,67.13,7,Robby Burnett,Scurry-Rosser,66.59,113.4,74.84,136.08,324.32,Unlimited,SBD,M,
Boys,67.13,8,Liam Otto,Corsicana,64.32,120.2,70.31,127.01,317.51,Unlimited,SBD,M,
Boys,67.13,9,Gavin Willis,Scurry-Rosser,65.68,127.01,72.57,117.93,317.51,Unlimited,SBD,M,
Boys,67.13,10,Hayden McClendon,Midlothian Heritage,62.87,117.93,70.31,127.01,315.25,Unlimited,SBD,M,
Boys,67.13,11,Dustin Wilkerson,Groesbeck,65.32,106.59,74.84,120.2,301.64,Unlimited,SBD,M,
Boys,67.13,12,Jaden Mendez,Dallas A+,60.24,90.72,56.7,136.08,283.5,Unlimited,SBD,M,
Boys,67.13,13,Mark Martinez,Terrell,64.32,90.72,56.7,129.27,276.69,Unlimited,SBD,M,
Boys,67.13,14,Zane Stearman,Corsicana,65.14,102.06,52.16,120.2,274.42,Unlimited,SBD,M,
Boys,67.13,DQ,Bryan Williams,Kemp,61.33,,,,,Unlimited,SBD,M,
Boys,74.84,1,Adam Dean,Pollok Central,71.58,254.01,145.15,217.72,616.89,Unlimited,SBD,M,
Boys,74.84,2,Abraham Saldana,Mexia,72.21,204.12,129.27,192.78,526.17,Unlimited,SBD,M,
Boys,74.84,3,Braydn Fowler,Pollok Central,73.57,192.78,131.54,201.85,526.17,Unlimited,SBD,M,
Boys,74.84,4,Eli Fitzhugh,Corsicana,73.12,179.17,147.42,188.24,514.83,Unlimited,SBD,M,
Boys,74.84,5,Noah Reagler,Mexia,73.21,174.63,117.93,204.12,496.68,Unlimited,SBD,M,
Boys,74.84,6,Nathan Matthews,Pollok Central,70.58,167.83,136.08,188.24,492.15,Unlimited,SBD,M,
Boys,74.84,7,Adrian Avila,Mexia,70.4,183.7,90.72,190.51,464.93,Unlimited,SBD,M,
Boys,74.84,8,David Rodriguez,Dallas A+,74.84,183.7,92.99,183.7,460.4,Unlimited,SBD,M,
Boys,74.84,9,Simon Zelata,Scurry-Rosser,74.84,156.49,83.91,154.22,394.63,Unlimited,SBD,M,
Boys,74.84,10,Maddox Henderson,Kemp,73.84,147.42,90.72,142.88,381.02,Unlimited,SBD,M,
Boys,74.84,11,Lanceden Surratt,Kemp,69.76,133.81,97.52,147.42,378.75,Unlimited,SBD,M,
Boys,74.84,12,Kaden Stanley,Midlothian Heritage,72.21,133.81,83.91,142.88,360.61,Unlimited,SBD,M,
Boys,74.84,13,Zack Waddle,Groesbeck,68.22,108.86,63.5,176.9,349.27,Unlimited,SBD,M,
Boys,74.84,14,Marshall Powell,Crandall,71.21,136.08,,,136.08,Unlimited,S,M,
Boys,74.84,DQ,Ethan Vincent,Kemp,73.84,,,,,Unlimited,SBD,M,
Boys,74.84,DQ,Tralan Brooks,Mexia,67.86,,,,,Unlimited,SBD,M,
Boys,74.84,DQ,Levi Kulick,Kemp,67.59,,,,,Unlimited,SBD,M,
Boys,82.1,1,Geo Wafer,Corsicana,80.74,208.65,142.88,195.04,546.58,Unlimited,SBD,M,
Boys,82.1,2,Grayson Nolan,Crandall,79.65,190.51,133.81,183.7,508.02,Unlimited,SBD,M,
Boys,82.1,3,Wyatt Robertson,Wortham,81.19,183.7,122.47,192.78,498.95,Unlimited,SBD,M,
Boys,82.1,4,Levi Fredrick,Crandall,81.37,163.29,111.13,199.58,474,Unlimited,SBD,M,
Boys,82.1,5,Thomas Hastings,Wills Point,82.1,183.7,106.59,176.9,467.2,Unlimited,SBD,M,
Boys,82.1,6,Holden Curton,Groesbeck,78.47,167.83,113.4,181.44,462.66,Unlimited,SBD,M,
Boys,82.1,7,Carlos Godinez,Wortham,80.47,195.04,97.52,149.69,442.25,Unlimited,SBD,M,
Boys,82.1,8,Raymond Leininger,Groesbeck,80.83,154.22,95.25,163.29,412.77,Unlimited,SBD,M,
Boys,82.1,9,Eli Vanek,Groesbeck,82.01,154.22,97.52,156.49,408.23,Unlimited,SBD,M,
Boys,82.1,10,Angel Guzman,Dallas A+,80.65,102.06,52.16,151.95,306.17,Unlimited,SBD,M,
Boys,82.1,11,Detrick Weeks,Crandall,76.2,145.15,,,145.15,Unlimited,S,M,
Boys,89.81,1,Austin Shackleford,Crandall,88.54,224.53,142.88,240.4,607.81,Unlimited,SBD,M,
Boys,89.81,2,Emanol Gonzalez,Corsicana,84.73,210.92,151.95,215.46,578.33,Unlimited,SBD,M,
Boys,89.81,3,Jacques Cooper,Mexia,87.09,188.24,122.47,226.8,537.51,Unlimited,SBD,M,
Boys,89.81,4,Damon Dunbar,Terrell,89.81,226.8,104.33,192.78,523.9,Unlimited,SBD,M,
Boys,89.81,5,Ethan Mann,Midlothian Heritage,88.63,192.78,158.76,170.1,521.63,Unlimited,SBD,M,
Boys,89.81,6,Matthew Jaquez,Crandall,82.19,210.92,92.99,215.46,519.36,Unlimited,SBD,M,
Boys,89.81,7,Logan Mullins,Scurry-Rosser,87.91,199.58,111.13,199.58,510.29,Unlimited,SBD,M,
Boys,89.81,8,Damian Miller,Midlothian Heritage,88.36,183.7,102.06,195.04,480.81,Unlimited,SBD,M,
Boys,89.81,9,Alex Garcia,Corsicana,88.45,183.7,111.13,172.37,467.2,Unlimited,SBD,M,
Boys,89.81,10,Damion Tillman,Crandall,83.64,149.69,104.33,190.51,444.52,Unlimited,SBD,M,
Boys,89.81,11,Anthony Delrosa,Midlothian Heritage,87.36,188.24,68.04,188.24,444.52,Unlimited,SBD,M,
Boys,89.81,12,Aiden Kilgore,Kemp,87.82,163.29,117.93,163.29,444.52,Unlimited,SBD,M,
Boys,89.81,13,Daniel Blees,Mexia,83.73,149.69,104.33,172.37,426.38,Unlimited,SBD,M,
Boys,89.81,14,Slayton Starett,North Forney,84.55,147.42,102.06,174.63,424.11,Unlimited,SBD,M,
Boys,89.81,15,German Del Toro,Terrell,89.63,265.35,156.49,,421.84,Unlimited,SB,M,
Boys,89.81,16,Cooper Horne,Nevada Community,83.64,158.76,102.06,156.49,417.3,Unlimited,SBD,M,
Boys,89.81,17,Johnny Johnson,Crandall,85.09,127.01,97.52,161.03,385.55,Unlimited,SBD,M,
Boys,89.81,18,Eric Marmolejo,Dallas A+,88.54,115.67,70.31,183.7,369.68,Unlimited,SBD,M,
Boys,89.81,19,Armando Gonzalez,Dallas A+,85.64,111.13,83.91,145.15,340.19,Unlimited,SBD,M,
Boys,89.81,20,Michael Haynes,Terrell,83.01,102.06,74.84,127.01,303.91,Unlimited,SBD,M,
Boys,89.81,21,Jairo Mendoza,Crandall,85.73,151.95,,,151.95,Unlimited,S,M,
Boys,99.79,1,Evan Owen,Corsicana,96.25,317.51,215.46,258.55,791.52,Unlimited,SBD,M,
Boys,99.79,2,Carson Maddox,Wills Point,98.43,272.16,192.78,215.46,680.39,Unlimited,SBD,M,
Boys,99.79,3,Jesus Alanis-Zamago,Pollok Central,99.16,235.87,147.42,240.4,623.69,Unlimited,SBD,M,
Boys,99.79,4,Jayden Foster,Nevada Community,99.79,219.99,113.4,204.12,537.51,Unlimited,SBD,M,
Boys,99.79,5,Braden Henke,Midlothian Heritage,97.52,192.78,124.74,188.24,505.76,Unlimited,SBD,M,
Boys,99.79,6,Abel Gallegos,Kemp,97.98,190.51,120.2,172.37,483.08,Unlimited,SBD,M,
Boys,99.79,7,Colt Ottmo,Kemp,95.25,170.1,108.86,142.88,421.84,Unlimited,SBD,M,
Boys,99.79,8,Preston Weller,Scurry-Rosser,92.99,158.76,95.25,149.69,403.7,Unlimited,SBD,M,
Boys,99.79,9,Michael Camarillo,Nevada Community,91.35,151.95,81.65,161.03,394.63,Unlimited,SBD,M,
Boys,99.79,10,Brendon Ruff,Terrell,92.26,149.69,68.04,142.88,360.61,Unlimited,SBD,M,
Boys,99.79,11,Kingston Gaona,Crandall,92.71,165.56,,,165.56,Unlimited,S,M,
Boys,99.79,DQ,Levi Thomas,Nevada Community,94.89,,,,,Unlimited,SBD,M,
Boys,109.77,1,James Rissmiller,Wortham,101.6,240.4,142.88,217.72,601.01,Unlimited,SBD,M,
Boys,109.77,2,Juan Zamarripa,Pollok Central,108.95,244.94,133.81,222.26,601.01,Unlimited,SBD,M,
Boys,109.77,3,Dillon Miller,Midlothian Heritage,107.32,204.12,124.74,226.8,555.65,Unlimited,SBD,M,
Boys,109.77,4,Jaxson Herbertson,Nevada Community,104.96,147.42,88.45,172.37,408.23,Unlimited,SBD,M,
Boys,109.77,5,David Valadez,Dallas A+,104.69,102.06,56.7,136.08,294.84,Unlimited,SBD,M,
Boys,124.74,1,Tanner Crumpton,Corsicana,121.74,265.35,226.8,226.8,718.94,Unlimited,SBD,M,
Boys,124.74,2,Michael Taylor,Pollok Central,114.21,229.06,167.83,249.48,646.37,Unlimited,SBD,M,
Boys,124.74,3,Michkeal Kennedy,Terrell,114.67,242.67,158.76,233.6,635.03,Unlimited,SBD,M,
Boys,124.74,4,Donovan Dory,North Forney,120.29,240.4,149.69,231.33,621.42,Unlimited,SBD,M,
Boys,124.74,5,Mathew Garcia,North Forney,118.93,217.72,145.15,226.8,589.67,Unlimited,SBD,M,
Boys,124.74,6,Kevin Amador,Dallas A+,121.47,215.46,151.95,210.92,578.33,Unlimited,SBD,M,
Boys,124.74,7,Carson Baskin,Terrell,124.1,204.12,120.2,204.12,528.44,Unlimited,SBD,M,
Boys,124.74,8,Tyler Callaway,Fruitvale,111.49,183.7,140.61,183.7,508.02,Unlimited,SBD,M,
Boys,124.74,9,Alyk Perkins,Pollok Central,111.67,165.56,115.67,201.85,483.08,Unlimited,SBD,M,
Boys,124.74,10,Kyle Lane,Mexia,113.94,174.63,104.33,181.44,460.4,Unlimited,SBD,M,
Boys,139.71,1,Osvaldo Rocha,Dallas A+,127.01,226.8,156.49,226.8,610.08,Unlimited,SBD,M,
Boys,139.71,2,Max Gomez,Corsicana,125.46,226.8,136.08,215.46,578.33,Unlimited,SBD,M,
Boys,139.71,3,Aiden Moss,Groesbeck,137.71,195.04,133.81,185.97,514.83,Unlimited,SBD,M,
Boys,139.71,4,Jesus Anguiano,Corsicana,138.35,115.67,106.59,142.88,365.14,Unlimited,SBD,M,
Boys,139.71,5,Jerome Thompson,North Forney,132.72,170.1,,,170.1,Unlimited,S,M,
Boys,139.71,DQ,Kolton Cook,Scurry-Rosser,138.71,,,,,Unlimited,SBD,M,
Boys,139.71+,1,Cooper Laird,Scurry-Rosser,161.57,281.23,145.15,238.14,664.51,Unlimited,SBD,M,
Boys,139.71+,2,Javier Alanis-Zamago,Pollok Central,169.28,192.78,154.22,170.1,517.1,Unlimited,SBD,M,
Boys,139.71+,3,Anthony Morales,Terrell,148.51,154.22,70.31,154.22,378.75,Unlimited,SBD,M,
