Division,WeightClassKg,Place,Name,Team,BodyweightKg,Best3SquatKg,Best3BenchKg,Best3DeadliftKg,TotalKg,Equipment,Event,Sex,BirthDate
Boys,51.71,1,Kevin Chavez,Royse City,51.21,145.15,72.57,158.76,376.48,Single-ply,SBD,M,
Boys,51.71,2,Jack Carroll,Dallas Highland Park,50.53,145.15,77.11,149.69,371.95,Single-ply,SBD,M,
Boys,51.71,3,Max Williamson,Sulphur Springs,51.17,136.08,88.45,147.42,371.95,Single-ply,SBD,M,
Boys,51.71,4,Julian Le,Carrollton Creekview,50.35,136.08,79.38,154.22,369.68,Single-ply,SBD,M,
Boys,51.71,5,Dillon Bobbitt,Greenville,50.98,138.35,63.5,131.54,333.39,Single-ply,SBD,M,
Boys,51.71,6,Bryan Diaz,Longview Pine Tree,48.72,111.13,58.97,124.74,294.84,Single-ply,SBD,M,
Boys,51.71,7,Bryan Núñez,Longview Pine Tree,49.99,102.06,68.04,124.74,294.84,Single-ply,SBD,M,
Boys,51.71,8,Kaleb Dollison,Longview Pine Tree,50.26,108.86,63.5,113.4,285.76,Single-ply,SBD,M,
Boys,51.71,9,Steve Nunez,Longview Pine Tree,49.26,77.11,56.7,127.01,260.82,Single-ply,SBD,M,
Boys,51.71,10,Jaxson Tran,Bishop Lynch,49.53,81.65,63.5,108.86,254.01,Single-ply,SBD,M,
Boys,51.71,11,Eric Melendez,Carrollton Turner,49.62,83.91,43.09,95.25,222.26,Single-ply,SBD,M,
Boys,51.71,DQ,Jared Ricker,Royse City,46.67,,,,,Single-ply,SBD,M,
Boys,55.79,1,Rhett Hutchins,Whitehouse,55.25,188.24,97.52,167.83,453.59,Single-ply,SBD,M,
Boys,55.79,2,Austin Reynolds,Royse City,55.38,163.29,92.99,176.9,433.18,Single-ply,SBD,M,
Boys,55.79,3,Ryan Fleming,Dallas Jesuit,53.8,161.03,86.18,158.76,405.97,Single-ply,SBD,M,
Boys,55.79,4,Rikker Suglia,Royse City,54.61,140.61,83.91,147.42,371.95,Single-ply,SBD,M,
Boys,55.79,5,Vinnie Teffaha,Dallas Highland Park,53.21,131.54,68.04,151.95,351.53,Single-ply,SBD,M,
Boys,55.79,6,Andy Mejia,Carrollton Turner,54.93,129.27,77.11,140.61,347,Single-ply,SBD,M,
Boys,55.79,7,Jacob Juarez,Longview Pine Tree,55.75,127.01,65.77,149.69,342.46,Single-ply,SBD,M,
Boys,55.79,8,Benito Castro,Longview Pine Tree,54.93,122.47,58.97,151.95,333.39,Single-ply,SBD,M,
Boys,55.79,9,Omar Carmona,Richardson,55.02,106.59,63.5,136.08,306.17,Single-ply,SBD,M,
Boys,55.79,10,Jovanny Ortega,Longview Pine Tree,52.12,88.45,58.97,108.86,256.28,Single-ply,SBD,M,
Boys,55.79,NS,Gianluca Figuerooa,Carrollton Smith,,,,,,Single-ply,SBD,M,
Boys,55.79,NS,Juan Santacruz,Sulphur Springs,,,,,,Single-ply,SBD,M,
Boys,59.87,1,Juan Hernandez #18,Sulphur Springs,59.33,206.38,108.86,231.33,546.58,Single-ply,SBD,M,
Boys,59.87,2,Earl Williams,Longview Pine Tree,59.78,170.1,108.86,172.37,451.32,Single-ply,SBD,M,
Boys,59.87,3,Alejandro Mojica,South Garland,59.06,147.42,92.99,170.1,410.5,Single-ply,SBD,M,
Boys,59.87,4,Anthony Guillen,Tyler Legacy,59.19,145.15,86.18,176.9,408.23,Single-ply,SBD,M,
Boys,59.87,5,Andre Bishop,West Mesquite,58.79,142.88,83.91,176.9,403.7,Single-ply,SBD,M,
Boys,59.87,6,David Chavez,Mount Pleasant,58.97,145.15,95.25,163.29,403.7,Single-ply,SBD,M,
Boys,59.87,7,Nathan Page,Tyler Legacy,58.01,142.88,83.91,158.76,385.55,Single-ply,SBD,M,
Boys,59.87,8,Joseph Cordova,Longview Pine Tree,59.87,154.22,77.11,154.22,385.55,Single-ply,SBD,M,
Boys,59.87,9,Alexander Primmer,West Mesquite,59.42,140.61,72.57,170.1,383.29,Single-ply,SBD,M,
Boys,59.87,10,Kyle Rinehart,West Mesquite,59.74,149.69,83.91,147.42,381.02,Single-ply,SBD,M,
Boys,59.87,11,Abraham Banueloz,Sulphur Springs,57.92,133.81,72.57,147.42,353.8,Single-ply,SBD,M,
Boys,59.87,DQ,Jacoriance White,Lufkin,58.92,,,,,Single-ply,SBD,M,
Boys,67.13,1,Kane Jones,Tyler Legacy,66.04,226.8,142.88,240.4,610.08,Single-ply,SBD,M,
Boys,67.13,2,Easton McMillan,Forney,65.82,215.46,117.93,197.31,530.7,Single-ply,SBD,M,
Boys,67.13,3,Cooper Roberts,Dallas Highland Park,64.91,181.44,108.86,219.99,510.29,Single-ply,SBD,M,
Boys,67.13,4,Arius Burton,Royse City,66.5,183.7,102.06,219.99,505.76,Single-ply,SBD,M,
Boys,67.13,5,Ajay Bhaven,Dallas Jesuit,65.68,197.31,99.79,199.58,496.68,Single-ply,SBD,M,
Boys,67.13,6,Massimo Liberator,Carrollton Creekview,63.87,185.97,113.4,174.63,474,Single-ply,SBD,M,
Boys,67.13,7,Colt Silman,Sulphur Springs,63.09,181.44,108.86,170.1,460.4,Single-ply,SBD,M,
Boys,67.13,DQ,Brealon Fagan,Hallsville,67.13,,,,,Single-ply,SBD,M,
Boys,67.13,DQ,Hunter Branson,Hallsville,65.45,,,,,Single-ply,SBD,M,
Boys,67.13,NS,Jacolbie Granville,Longview,,,,,,Single-ply,SBD,M,
Boys,67.13,NS,Raimone Flournoy,Longview Pine Tree,,,,,,Single-ply,SBD,M,
Boys,67.13,NS,Jose Peraza,Carrollton Smith,,,,,,Single-ply,SBD,M,
Boys,74.84,1,Colton Monroe,Bishop Lynch,72.48,229.06,136.08,244.94,610.08,Single-ply,SBD,M,
Boys,74.84,2,Kysen Jackson,Longview,72.08,208.65,145.15,208.65,562.45,Single-ply,SBD,M,
Boys,74.84,3,Hayden Bohme,Royse City,73.16,210.92,108.86,215.46,535.24,Single-ply,SBD,M,
Boys,74.84,4,Keolan Harongsemal,Carrollton Creekview,74.39,197.31,115.67,204.12,517.1,Single-ply,SBD,M,
Boys,74.84,5,De'Juan Limbrick,West Mesquite,70.08,199.58,106.59,204.12,510.29,Single-ply,SBD,M,
Boys,74.84,6,Chance Whelchel,Tyler Legacy,74.53,176.9,142.88,176.9,496.68,Single-ply,SBD,M,
Boys,74.84,7,Toney Alexander,Tyler,73.26,206.38,113.4,174.63,494.42,Single-ply,SBD,M,
Boys,74.84,8,Cole Murry,Whitehouse,69.49,174.63,120.2,185.97,480.81,Single-ply,SBD,M,
Boys,74.84,9,Kase Mumphrey,Crandall,72.3,183.7,111.13,185.97,480.81,Single-ply,SBD,M,
Boys,74.84,10,Jaden Coulter,Carrollton Smith,74.84,188.24,104.33,183.7,476.27,Single-ply,SBD,M,
Boys,74.84,11,Bacquari Murphy,Lufkin,72.98,167.83,99.79,204.12,471.74,Single-ply,SBD,M,
Boys,74.84,DQ,Christian Straffon,Dallas Jesuit,70.67,,,,,Single-ply,SBD,M,
Boys,82.1,1,Isaiah Lowe,Greenville,79.97,226.8,149.69,260.82,637.3,Single-ply,SBD,M,
Boys,82.1,2,Matthew Mitchell,Sulphur Springs,80.65,251.74,147.42,213.19,612.35,Single-ply,SBD,M,
Boys,82.1,3,Sam Mitchum,Royse City,76.2,192.78,149.69,247.21,589.67,Single-ply,SBD,M,
Boys,82.1,4,Christian Perry,Royse City,79.06,208.65,129.27,226.8,564.72,Single-ply,SBD,M,
Boys,82.1,5,Colin Scherp,Dallas Jesuit,80.47,206.38,111.13,210.92,528.44,Single-ply,SBD,M,
Boys,82.1,6,Raul Lechuga,Whitehouse,81.47,226.8,111.13,190.51,528.44,Single-ply,SBD,M,
Boys,82.1,7,Metric Manning,Duncanville,82.05,195.04,113.4,215.46,523.9,Single-ply,SBD,M,
Boys,82.1,8,Areion Coln,Richardson,78.88,199.58,129.27,188.24,517.1,Single-ply,SBD,M,
Boys,82.1,9,Robert Hudson,Mesquite Horn,80.42,192.78,136.08,183.7,512.56,Single-ply,SBD,M,
Boys,82.1,10,Malachi Reynolds,Richardson,81.06,208.65,102.06,195.04,505.76,Single-ply,SBD,M,
Boys,82.1,11,Daniel Wenner,Forney,79.92,172.37,136.08,195.04,503.49,Single-ply,SBD,M,
Boys,82.1,12,JaQualon Armstrong,Duncanville,81.74,188.24,111.13,204.12,503.49,Single-ply,SBD,M,
Boys,82.1,13,Hayden Futch,Lufkin,80.69,185.97,113.4,188.24,487.61,Single-ply,SBD,M,
Boys,89.81,1,Caleb Bolay,Whitehouse,87.63,281.23,235.87,190.51,707.6,Single-ply,SBD,M,
Boys,89.81,2,Caleb Robb,Royse City,88.68,274.42,161.03,229.06,664.51,Single-ply,SBD,M,
Boys,89.81,3,Reggie Williams,Crandall,89.77,240.4,161.03,242.67,644.1,Single-ply,SBD,M,
Boys,89.81,4,Blake Martinez,Mesquite Poteet,87.18,247.21,151.95,242.67,641.83,Single-ply,SBD,M,
Boys,89.81,5,Ben Hatcher,Sulphur Springs,89.77,254.01,145.15,235.87,635.03,Single-ply,SBD,M,
Boys,89.81,6,Dunaireon Cantley,Tyler,88.72,233.6,147.42,224.53,605.55,Single-ply,SBD,M,
Boys,89.81,7,Justin Scott,Royse City,88.36,226.8,142.88,233.6,603.28,Single-ply,SBD,M,
Boys,89.81,8,Connor Zenici,Coppell,87.09,217.72,131.54,244.94,594.21,Single-ply,SBD,M,
Boys,89.81,9,DeJay Huggins,Hallsville,88.27,240.4,113.4,208.65,562.45,Single-ply,SBD,M,
Boys,89.81,10,Javorie Garrett,Lufkin,87.09,199.58,127.01,233.6,560.19,Single-ply,SBD,M,
Boys,89.81,11,Andre Johnson,Richardson Lake Highlands,89.81,208.65,117.93,226.8,553.38,Single-ply,SBD,M,
Boys,89.81,12,Solomon Charles,Duncanville,86.68,210.92,122.47,215.46,548.85,Single-ply,SBD,M,
Boys,99.79,1,Hayden Branson,Hallsville,91.4,265.35,183.7,260.82,709.87,Single-ply,SBD,M,
Boys,99.79,2,Mark Daniels #3,Longview Pine Tree,96.03,265.35,190.51,233.6,689.46,Single-ply,SBD,M,
Boys,99.79,3,Chad Maynard,Sulphur Springs,98.43,283.5,156.49,217.72,657.71,Single-ply,SBD,M,
Boys,99.79,4,Kenneth Hawkins,Tyler Legacy,95.66,233.6,149.69,217.72,601.01,Single-ply,SBD,M,
Boys,99.79,5,Nick Webber,Carrollton Smith,98.88,249.48,142.88,208.65,601.01,Single-ply,SBD,M,
Boys,99.79,6,Ike Odimegwu,Coppell,92.4,219.99,127.01,240.4,587.4,Single-ply,SBD,M,
Boys,99.79,7,Khaleel Parker,Greenville,92.49,219.99,124.74,231.33,576.06,Single-ply,SBD,M,
Boys,99.79,8,Rodolfo Ramirez,Richardson Pearce,96.62,219.99,120.2,226.8,566.99,Single-ply,SBD,M,
Boys,99.79,9,Billy Bateman,Jacksonville,95.35,185.97,154.22,222.26,562.45,Single-ply,SBD,M,
Boys,99.79,10,Shan Chimni,Rockwall Heath,98.52,210.92,133.81,213.19,557.92,Single-ply,SBD,M,
Boys,99.79,DQ,Cruz Rivera,Tyler Legacy,92.49,,,,,Single-ply,SBD,M,
Boys,99.79,NS,Hurcules Tarver,Longview Pine Tree,,,,,,Single-ply,SBD,M,
Boys,99.79,DQ,Kylan Salter,Cedar Hill,93.08,226.8,122.47,,,Single-ply,SBD,M,
Boys,109.77,1,Micah Shepherd,Mount Pleasant,108.59,278.96,185.97,229.06,694,Single-ply,SBD,M,
Boys,109.77,2,Emiliano Portillo,Greenville,101.06,272.16,172.37,226.8,671.32,Single-ply,SBD,M,
Boys,109.77,3,Joel Portillo,Carrollton Turner,108.36,265.35,142.88,231.33,639.57,Single-ply,SBD,M,
Boys,109.77,4,Tayton Auldridge,Forney,100.02,254.01,151.95,224.53,630.49,Single-ply,SBD,M,
Boys,109.77,5,Tyler Dean,Royse City,109,249.48,158.76,208.65,616.89,Single-ply,SBD,M,
Boys,109.77,6,Carson Combs,Marshall,107.14,233.6,158.76,210.92,603.28,Single-ply,SBD,M,
Boys,109.77,7,Jermaine Simpson,Lufkin,100.38,217.72,129.27,249.48,596.47,Single-ply,SBD,M,
Boys,109.77,8,Clayton Miller,Mount Pleasant,106.87,226.8,156.49,201.85,585.13,Single-ply,SBD,M,
Boys,109.77,9,Dillon Moralez,Hallsville,103.46,226.8,136.08,210.92,573.79,Single-ply,SBD,M,
Boys,109.77,10,Astin Ledbetter,Mount Pleasant,102.6,190.51,154.22,219.99,564.72,Single-ply,SBD,M,
Boys,109.77,11,Brantley Bauer,Jacksonville,103.87,192.78,145.15,210.92,548.85,Single-ply,SBD,M,
Boys,109.77,NS,Jax Norman,Longview,,,,,,Single-ply,SBD,M,
Boys,109.77,NS,Mongo Williams,Longview,,,,,,Single-ply,SBD,M,
Boys,124.74,1,Tariq Robinson,Tyler Legacy,115.08,310.71,226.8,215.46,752.96,Single-ply,SBD,M,
Boys,124.74,2,Jaen Escamilla,Richardson Lake Highlands,122.74,281.23,172.37,254.01,707.6,Single-ply,SBD,M,
Boys,124.74,3,Keiran Phounsavath,Royse City,114.35,292.57,181.44,229.06,703.07,Single-ply,SBD,M,
Boys,124.74,4,Isaiah Knox,Cedar Hill,122.61,288.03,151.95,240.4,680.39,Single-ply,SBD,M,
Boys,124.74,5,Andrew Rodgers,Nacogdoches,115.8,249.48,154.22,263.08,666.78,Single-ply,SBD,M,
Boys,124.74,6,Jake Seal,Hallsville,123.24,249.48,145.15,217.72,612.35,Single-ply,SBD,M,
Boys,124.74,7,Kyren McCullough,Whitehouse,118.98,222.26,158.76,222.26,603.28,Single-ply,SBD,M,
Boys,124.74,8,Bryan Granados,Nacogdoches,114.12,249.48,124.74,226.8,601.01,Single-ply,SBD,M,
Boys,124.74,9,Christian Thomas,Forney,121.38,219.99,158.76,217.72,596.47,Single-ply,SBD,M,
Boys,124.74,10,Noah Sanchez,Carrollton Creekview,117.39,238.14,136.08,192.78,566.99,Single-ply,SBD,M,
Boys,124.74,11,Artavion Brown,West Mesquite,111.54,215.46,131.54,210.92,557.92,Single-ply,SBD,M,
Boys,124.74,NS,Luis Venerjas,Greenville,,,,,,Single-ply,SBD,M,
Boys,139.71,1,Brandon Childs,Texarkana Texas,128.19,288.03,161.03,226.8,675.85,Single-ply,SBD,M,
Boys,139.71,2,Reese Mercer,Forney,130.32,283.5,151.95,235.87,671.32,Single-ply,SBD,M,
Boys,139.71,3,Johnathan Bush,Whitehouse,124.87,265.35,158.76,244.94,669.05,Single-ply,SBD,M,
Boys,139.71,4,Byron Golden,North Forney,129.82,249.48,151.95,251.74,653.17,Single-ply,SBD,M,
Boys,139.71,5,Sean Dial,Sulphur Springs,125.92,249.48,151.95,244.94,646.37,Single-ply,SBD,M,
Boys,139.71,6,Nicholas Cruz,Tyler,128,254.01,151.95,235.87,641.83,Single-ply,SBD,M,
Boys,139.71,7,Aiden Gay,Jacksonville,138.8,226.8,167.83,222.26,616.89,Single-ply,SBD,M,
Boys,139.71,8,Jones Kelm,Tyler Legacy,128.5,247.21,145.15,219.99,612.35,Single-ply,SBD,M,
Boys,139.71,DQ,James Ward,Richardson Lake Highlands,135.9,260.82,,,,Single-ply,SBD,M,
Boys,139.71,DQ,Collin Howe,Royse City,127.73,,,,,Single-ply,SBD,M,
Boys,139.71,NS,Jordan Nichols,Lufkin,,,,,,Single-ply,SBD,M,
Boys,139.71,NS,Taron Satchell,Marshall,,,,,,Single-ply,SBD,M,
Boys,139.71,NS,Zahmaurixa Jones-Lewis,Duncanville,,,,,,Single-ply,SBD,M,
Boys,139.71+,1,Ismael Alvarez,South Garland,161.25,294.84,204.12,260.82,759.77,Single-ply,SBD,M,
Boys,139.71+,2,Sebastian Martinez,Rockwall Heath,158.39,290.3,158.76,256.28,705.34,Single-ply,SBD,M,
Boys,139.71+,3,Charles Weber,Coppell,158.89,272.16,156.49,240.4,669.05,Single-ply,SBD,M,
Boys,139.71+,4,William Bressi,North Forney,156.35,242.67,165.56,249.48,657.71,Single-ply,SBD,M,
Boys,139.71+,5,Jordan Hooks,Bishop Lynch,142.61,249.48,158.76,231.33,639.57,Single-ply,SBD,M,
Boys,139.71+,6,Nick Singleton,West Mesquite,169.05,265.35,120.2,249.48,635.03,Single-ply,SBD,M,
Boys,139.71+,7,Caleb Power,Whitehouse,140.66,249.48,142.88,231.33,623.69,Single-ply,SBD,M,
Boys,139.71+,8,Isais Vasquez,Crandall,152.13,226.8,131.54,219.99,578.33,Single-ply,SBD,M,
Boys,139.71+,9,Nicholas Batton,Texarkana Texas,156.53,188.24,151.95,215.46,555.65,Single-ply,SBD,M,
Boys,139.71+,DQ,Isaac Maulupe,Mesquite Poteet,143.88,,,,,Single-ply,SBD,M,
Boys,139.71+,DQ,Blair Williams,Longview,151.64,240.4,,,,Single-ply,SBD,M,
Boys,139.71+,NS,Llanes Alek,Carrollton Creekview,,,,,,Single-ply,SBD,M,
