Place,Name,BirthDate,Sex,BirthYear,Age,Country,State,Equipment,Division,BodyweightKg,WeightClassKg,Squat1Kg,Squat2Kg,Squat3Kg,Best3SquatKg,Bench1Kg,Bench2Kg,Bench3Kg,Best3BenchKg,Deadlift1Kg,Deadlift2Kg,Deadlift3Kg,Best3DeadliftKg,TotalKg,Event
1,Whitney Barrett,,F,1992,31,,VA,Raw,Open,80.4,82.5,112.5,-117.5,117.5,117.5,57.5,60,65,65,125,132.5,145,145,327.5,SBD
1,Johnathon Martin,,M,2001,22,,TN,Raw,J20-23,87.9,90,192.5,200,205,205,107.5,112.5,-115,112.5,232.5,247.5,252.5,252.5,570,SBD
1,Thomas Stephens,,M,1984,40,,KY,Raw,M40-44,106.5,110,225,240,245,245,140,155,-168,155,235,250,265,265,665,SBD
1,Daniel Core,,M,1990,33,,NC,Raw,Open,92.2,100,175,185,192.5,192.5,137.5,142.5,150,150,175,187.5,205,205,547.5,SBD
1,David Shumaker,,M,1985,38,,TN,Raw,S35-39,97.7,100,232.5,240,-242.5,240,137.5,-142.5,,137.5,237.5,245,252.5,252.5,630,SBD
