Division,WeightClassKg,Place,Name,Team,BodyweightKg,Best3SquatKg,Best3BenchKg,Best3DeadliftKg,TotalKg,Equipment,Event,Sex,BirthDate
Boys,51.71,1,Jaycob Leos,Victoria East,51.26,131.54,72.57,142.88,347,Unlimited,SBD,M,
Boys,51.71,2,Tyrin Garner,Rockport-Fulton,51.53,124.74,65.77,136.08,326.59,Unlimited,SBD,M,
Boys,51.71,3,Jesus Maldonado,Gonzales,46.63,102.06,70.31,102.06,274.42,Unlimited,SBD,M,
Boys,51.71,DQ,Hector Reyna,Gonzales,51.71,,,,,Unlimited,SBD,M,
Boys,51.71,DQ,Julian Valdivia,Refugio,51.71,,,,,Unlimited,SBD,M,
Boys,55.79,1,Shel Htoo,Port Lavaca Calhoun,55.07,174.63,111.13,188.24,474,Unlimited,SBD,M,
Boys,55.79,2,Khali Jantes,Nixon Smiley,55.25,129.27,88.45,142.88,360.61,Unlimited,SBD,M,
Boys,55.79,3,Eian Duncan,Refugio,54.61,70.31,47.63,70.31,188.24,Unlimited,SBD,M,
Boys,59.87,1,Tyler Barrientez,Nixon Smiley,59.51,215.46,129.27,183.7,528.44,Unlimited,SBD,M,
Boys,59.87,2,Alex Tafolla,Port Lavaca Calhoun,59.42,156.49,102.06,206.38,464.93,Unlimited,SBD,M,
Boys,59.87,3,Jayden Moya,Refugio,56.7,156.49,97.52,183.7,437.72,Unlimited,SBD,M,
Boys,59.87,4,John Garza,Nixon Smiley,59.33,158.76,81.65,151.95,392.36,Unlimited,SBD,M,
Boys,59.87,5,Kevin Garcia,Gonzales,59.06,92.99,56.7,131.54,281.23,Unlimited,SBD,M,
Boys,67.13,1,Jessiah Barr,Gonzales,67.13,260.82,165.56,247.21,673.58,Unlimited,SBD,M,
Boys,67.13,2,Mason Gwosdz,Victoria East,66.04,272.16,158.76,233.6,664.51,Unlimited,SBD,M,
Boys,67.13,3,Oscar Acosta,Nixon Smiley,67.13,240.4,151.95,231.33,623.69,Unlimited,SBD,M,
Boys,67.13,4,Traey Alvarado,Rockport-Fulton,66.59,208.65,122.47,213.19,544.31,Unlimited,SBD,M,
Boys,67.13,5,Andrew Hernandez,Karnes City,64.41,185.97,97.52,195.04,478.54,Unlimited,SBD,M,
Boys,67.13,6,Eric Rodriguez,Nixon Smiley,65.86,165.56,113.4,170.1,449.06,Unlimited,SBD,M,
Boys,67.13,7,Isaiah Gonzales,Victoria East,62.14,167.83,86.18,167.83,421.84,Unlimited,SBD,M,
Boys,67.13,8,Jose Mendoza,Runge,66.41,145.15,68.04,183.7,396.89,Unlimited,SBD,M,
Boys,67.13,9,Julian Perales,Karnes City,64.86,136.08,92.99,124.74,353.8,Unlimited,SBD,M,
Boys,67.13,10,Luis Garay,Victoria St. Joseph,66.59,127.01,95.25,131.54,353.8,Unlimited,SBD,M,
Boys,67.13,11,Dean Lester,Victoria St. Joseph,61.87,113.4,81.65,127.01,322.05,Unlimited,SBD,M,
Boys,67.13,12,Luke Swartz,Victoria St. Joseph,60.78,102.06,56.7,136.08,294.84,Unlimited,SBD,M,
Boys,67.13,13,Gabriel Barnoski,Karnes City,62.6,79.38,61.23,117.93,258.55,Unlimited,SBD,M,
Boys,67.13,14,Eythan Diaz,Refugio,63.5,79.38,56.7,104.33,240.4,Unlimited,SBD,M,
Boys,67.13,DQ,Colbin Gutierrez,Runge,67.13,,,,,Unlimited,SBD,M,
Boys,67.13,DQ,Anthony Cruz,Karnes City,67.13,,,,,Unlimited,SBD,M,
Boys,74.84,1,Randal Delgado,Victoria East,74.12,272.16,163.29,231.33,666.78,Unlimited,SBD,M,
Boys,74.84,2,Andy Rico,Port Lavaca Calhoun,70.22,231.33,165.56,229.06,625.96,Unlimited,SBD,M,
Boys,74.84,3,Angel Guerrero,Port Lavaca Calhoun,72.94,231.33,136.08,258.55,625.96,Unlimited,SBD,M,
Boys,74.84,4,Kaden Deleon,Gonzales,74.12,235.87,183.7,204.12,623.69,Unlimited,SBD,M,
Boys,74.84,5,Trevor Dykes,Port Lavaca Calhoun,74.21,235.87,131.54,251.74,619.15,Unlimited,SBD,M,
Boys,74.84,6,Michael Ramos,Rockport-Fulton,74.48,226.8,149.69,217.72,594.21,Unlimited,SBD,M,
Boys,74.84,7,Will Stephenson,Rockport-Fulton,73.12,176.9,104.33,179.17,460.4,Unlimited,SBD,M,
Boys,74.84,8,Justice Cuellar,Karnes City,72.94,163.29,88.45,170.1,421.84,Unlimited,SBD,M,
Boys,74.84,9,Wyatt Merritt,Karnes City,72.94,117.93,61.23,102.06,281.23,Unlimited,SBD,M,
Boys,74.84,DQ,Jonathan Solansky,Refugio,68.58,,,,,Unlimited,SBD,M,
Boys,74.84,DQ,Evan Castro,Runge,74.84,,,,,Unlimited,SBD,M,
Boys,74.84,DQ,Miguel Valerio,Nixon Smiley,74.12,199.58,,,,Unlimited,SBD,M,
Boys,82.1,1,Kayden Leal,Victoria West,82.1,258.55,149.69,242.67,650.91,Unlimited,SBD,M,
Boys,82.1,2,Jordan Stafford,Victoria East,78.65,238.14,158.76,226.8,623.69,Unlimited,SBD,M,
Boys,82.1,3,Omar Morales Navarro,Nixon Smiley,82.1,233.6,149.69,235.87,619.15,Unlimited,SBD,M,
Boys,82.1,4,Sean Howell,Rockport-Fulton,78.11,201.85,111.13,224.53,537.51,Unlimited,SBD,M,
Boys,82.1,5,Noah Pearce,Port Lavaca Calhoun,82.01,206.38,129.27,174.63,510.29,Unlimited,SBD,M,
Boys,82.1,6,Gunner McCall,Port Lavaca Calhoun,82.1,172.37,120.2,192.78,485.34,Unlimited,SBD,M,
Boys,82.1,7,Abel Gonzales,Karnes City,78.56,142.88,65.77,172.37,381.02,Unlimited,SBD,M,
Boys,82.1,DQ,Carlos García,Gonzales,80.38,124.74,102.06,,,Unlimited,SBD,M,
Boys,89.81,1,Jesus Espino,Nixon Smiley,89.81,260.82,170.1,231.33,662.24,Unlimited,SBD,M,
Boys,89.81,2,Hunter Gaines,Rockport-Fulton,84.82,269.89,151.95,224.53,646.37,Unlimited,SBD,M,
Boys,89.81,3,Ruben Villareal,Port Lavaca Calhoun,87.36,213.19,136.08,208.65,557.92,Unlimited,SBD,M,
Boys,89.81,4,Gabriel García,Victoria East,86.55,215.46,124.74,213.19,553.38,Unlimited,SBD,M,
Boys,89.81,5,Adan Zavala,Nixon Smiley,87.18,201.85,124.74,188.24,514.83,Unlimited,SBD,M,
Boys,89.81,6,Alan Espino,Nixon Smiley,88,188.24,108.86,195.04,492.15,Unlimited,SBD,M,
Boys,89.81,7,Brayden Dedear,Karnes City,86.64,181.44,104.33,185.97,471.74,Unlimited,SBD,M,
Boys,89.81,DQ,Kade Alston,Rockport-Fulton,89.81,,,,,Unlimited,SBD,M,
Boys,89.81,DQ,Douglas Farrell,Refugio,89.81,,,,,Unlimited,SBD,M,
Boys,89.81,DQ,Jaylun Rodriguez,Nixon Smiley,86.55,195.04,,,,Unlimited,SBD,M,
Boys,99.79,1,Adrian Estrada,Rockport-Fulton,98.16,274.42,172.37,260.82,707.6,Unlimited,SBD,M,
Boys,99.79,2,Jake Jenkins,Port Lavaca Calhoun,97.25,235.87,154.22,190.51,580.6,Unlimited,SBD,M,
Boys,99.79,3,Torre Castillo,Port Lavaca Calhoun,95.53,179.17,133.81,199.58,512.56,Unlimited,SBD,M,
Boys,99.79,4,Gracen Martin,Nixon Smiley,91.9,179.17,111.13,188.24,478.54,Unlimited,SBD,M,
Boys,99.79,5,Osvaldo Martinez,Karnes City,92.8,154.22,92.99,158.76,405.97,Unlimited,SBD,M,
Boys,99.79,6,Mateo Rodriguez,Karnes City,94.53,131.54,56.7,133.81,322.05,Unlimited,SBD,M,
Boys,99.79,DQ,Johnaven Montalvo,Refugio,93.89,,,,,Unlimited,SBD,M,
Boys,109.77,1,Cadence Wills,Refugio,106.5,183.7,154.22,226.8,564.72,Unlimited,SBD,M,
Boys,109.77,2,Gary Lewis III,Gonzales,103.15,215.46,140.61,197.31,553.38,Unlimited,SBD,M,
Boys,109.77,3,Emilio Ortiz,Port Lavaca Calhoun,107.86,206.38,129.27,206.38,542.04,Unlimited,SBD,M,
Boys,109.77,4,Rafael Rodriguez,Gonzales,102.51,183.7,142.88,210.92,537.51,Unlimited,SBD,M,
Boys,109.77,5,Tanner Starling,Rockport-Fulton,103.24,183.7,111.13,172.37,467.2,Unlimited,SBD,M,
Boys,109.77,DQ,Douglas Feijoo Contreras,Refugio,107.59,158.76,92.99,,,Unlimited,SBD,M,
Boys,124.74,1,Landon Holub,Gonzales,123.38,303.91,201.85,208.65,714.41,Unlimited,SBD,M,
Boys,124.74,2,Noah Jones,Rockport-Fulton,121.2,229.06,185.97,217.72,632.76,Unlimited,SBD,M,
Boys,124.74,3,Ryan Martinez,Karnes City,119.93,192.78,102.06,165.56,460.4,Unlimited,SBD,M,
Boys,124.74,4,Brody Guajardo,Victoria St. Joseph,113.94,102.06,49.9,113.4,265.35,Unlimited,SBD,M,
Boys,139.71,1,Omar Borjon,Gonzales,136.71,272.16,208.65,208.65,689.46,Unlimited,SBD,M,
Boys,139.71,2,Gustavo Rodriguez,Gonzales,132.63,231.33,161.03,219.99,612.35,Unlimited,SBD,M,
Boys,139.71,3,Noah Jenks,Nixon Smiley,125.92,224.53,140.61,206.38,571.53,Unlimited,SBD,M,
Boys,139.71,4,Daniel Crespin,Rockport-Fulton,134.17,222.26,111.13,185.97,519.36,Unlimited,SBD,M,
Boys,139.71,5,Darren Hernandez,Karnes City,126.19,142.88,86.18,165.56,394.63,Unlimited,SBD,M,
Boys,139.71,6,Jonathan Dorantes,Gonzales,135.99,138.35,56.7,142.88,337.93,Unlimited,SBD,M,
Boys,139.71,DQ,Daisn Pena,Runge,130.45,,,,,Unlimited,SBD,M,
Boys,139.71+,1,Jose Lugo,Victoria East,148.87,326.59,265.35,258.55,850.49,Unlimited,SBD,M,
Boys,139.71+,2,Artemio Herrera,Port Lavaca Calhoun,157.94,306.17,204.12,235.87,746.16,Unlimited,SBD,M,
Boys,139.71+,3,Landry Kuykendal,Rockport-Fulton,153.95,224.53,122.47,192.78,539.77,Unlimited,SBD,M,
