Division,WeightClassKg,Place,Name,Team,BodyweightKg,Best3SquatKg,Best3BenchKg,Best3DeadliftKg,TotalKg,Equipment,Event,Sex,BirthDate
Boys,51.71,1,Rudy Rivera,Pasadena Rayburn,51.26,104.33,56.7,106.59,267.62,Unlimited,SBD,M,
Boys,55.79,1,Javier Lagunas,Houston Northbrook,54.98,124.74,72.57,129.27,326.59,Unlimited,SBD,M,
Boys,55.79,2,Daniel Santos,Pasadena Rayburn,54.61,43.09,52.16,90.72,185.97,Unlimited,SBD,M,
Boys,59.87,1,Jacob Lopez,Beaumont West Brook,58.6,142.88,106.59,151.95,401.43,Unlimited,SBD,M,
Boys,59.87,2,Kevin Jackson,Pasadena Rayburn,58.42,158.76,81.65,158.76,399.16,Unlimited,SBD,M,
Boys,59.87,3,Ka'mory Harris,Pasadena South Houston,59.87,129.27,83.91,149.69,362.87,Unlimited,SBD,M,
Boys,59.87,4,Andrew Bowdoin,Pasadena Rayburn,58.69,136.08,74.84,136.08,347,Unlimited,SBD,M,
Boys,59.87,5,Chris Argueta,Houston Northbrook,57.33,102.06,77.11,142.88,322.05,Unlimited,SBD,M,
Boys,59.87,6,Daniel Gutierrez,Pasadena South Houston,57.42,104.33,52.16,102.06,258.55,Unlimited,SBD,M,
Boys,67.13,1,Ismael Hernandez,Pasadena South Houston,63.96,199.58,106.59,235.87,542.04,Unlimited,SBD,M,
Boys,67.13,2,Jose Labra,Pasadena South Houston,66.86,188.24,108.86,188.24,485.34,Unlimited,SBD,M,
Boys,67.13,3,Steven Tran,Houston Aldine,60.24,167.83,79.38,210.92,458.13,Unlimited,SBD,M,
Boys,67.13,DQ,Carlos Luna,Pasadena Rayburn,67.13,188.24,102.06,,,Unlimited,SBD,M,
Boys,74.84,1,David Dinh,Beaumont West Brook,73.94,226.8,113.4,242.67,582.87,Unlimited,SBD,M,
Boys,74.84,2,Jacob Parson,Houston Northbrook,72.57,170.1,124.74,204.12,498.95,Unlimited,SBD,M,
Boys,74.84,3,Andrew Philips,Beaumont West Brook,69.22,183.7,117.93,167.83,469.47,Unlimited,SBD,M,
Boys,74.84,4,Ruben Vasquez,Pasadena Rayburn,72.57,161.03,113.4,183.7,458.13,Unlimited,SBD,M,
Boys,74.84,5,Emilio Ordonez,Houston Northbrook,74.3,127.01,92.99,170.1,390.09,Unlimited,SBD,M,
Boys,82.1,1,Juan Garza,Pasadena Rayburn,79.65,204.12,108.86,226.8,539.77,Unlimited,SBD,M,
Boys,82.1,2,Rene Chavez,Pasadena South Houston,80.56,172.37,111.13,183.7,467.2,Unlimited,SBD,M,
Boys,82.1,3,Jacob Cedillo,Pasadena Rayburn,78.29,142.88,120.2,183.7,446.79,Unlimited,SBD,M,
Boys,82.1,4,Rogelio Palma,Pasadena South Houston,79.47,170.1,102.06,172.37,444.52,Unlimited,SBD,M,
Boys,82.1,5,Donovan Chaney,Beaumont West Brook,81.65,138.35,65.77,167.83,371.95,Unlimited,SBD,M,
Boys,82.1,6,Austin Elizondo,Tomball Concordia Lutheran,78.61,102.06,92.99,142.88,337.93,Unlimited,SBD,M,
Boys,89.81,1,Isaiah Junior,Beaumont West Brook,88.63,224.53,133.81,210.92,569.26,Unlimited,SBD,M,
Boys,89.81,2,Cojisce Peterson,Pasadena South Houston,82.92,197.31,129.27,192.78,519.36,Unlimited,SBD,M,
Boys,89.81,3,Jose Rodriguez,Pasadena Rayburn,87.91,190.51,133.81,188.24,512.56,Unlimited,SBD,M,
Boys,89.81,4,Javier Estrada,Pasadena Rayburn,85.18,188.24,104.33,183.7,476.27,Unlimited,SBD,M,
Boys,89.81,5,Alexander Silva,Houston Aldine,89.72,151.95,97.52,154.22,403.7,Unlimited,SBD,M,
Boys,89.81,6,Angel Guzman,Houston Northbrook,86.55,142.88,95.25,158.76,396.89,Unlimited,SBD,M,
Boys,89.81,7,Miguel Ayala,Houston Aldine,87.82,142.88,88.45,161.03,392.36,Unlimited,SBD,M,
Boys,89.81,8,Julian Canales,Houston Aldine,82.83,129.27,79.38,147.42,356.07,Unlimited,SBD,M,
Boys,89.81,9,Matthew DeMott,Tomball Concordia Lutheran,89.81,102.06,79.38,131.54,312.98,Unlimited,SBD,M,
Boys,99.79,1,Salatiel Trujillo,Houston Aldine,91.99,210.92,147.42,258.55,616.89,Unlimited,SBD,M,
Boys,99.79,2,Michael Janise,Beaumont West Brook,92.17,195.04,120.2,158.76,474,Unlimited,SBD,M,
Boys,99.79,3,Anthony Murillo,Houston Northbrook,98.43,183.7,102.06,185.97,471.74,Unlimited,SBD,M,
Boys,99.79,4,Jorge Gamez,Pasadena Rayburn,93.44,158.76,122.47,183.7,464.93,Unlimited,SBD,M,
Boys,99.79,5,Alexander Cruz,Houston Northbrook,91.53,158.76,92.99,183.7,435.45,Unlimited,SBD,M,
Boys,109.77,1,Traydell Roane,Beaumont West Brook,109.77,249.48,122.47,219.99,591.94,Unlimited,SBD,M,
Boys,109.77,2,Braden Mayberry,Pasadena South Houston,109.41,219.99,106.59,199.58,526.17,Unlimited,SBD,M,
Boys,109.77,3,Mario Galvan,Houston Aldine,103.33,204.12,104.33,172.37,480.81,Unlimited,SBD,M,
Boys,109.77,4,Samuel Saravia,Houston Aldine,100.79,158.76,88.45,183.7,430.91,Unlimited,SBD,M,
Boys,109.77,5,Peter Hernandez,Houston Northbrook,106.59,161.03,88.45,174.63,424.11,Unlimited,SBD,M,
Boys,109.77,6,William SantaRita,Houston Aldine,104.42,133.81,79.38,149.69,362.87,Unlimited,SBD,M,
Boys,109.77,8,Christian Moreno,Houston Aldine,107.23,102.06,61.23,183.7,347,Unlimited,SBD,M,
Boys,124.74,1,Axel Amaya,Houston Northbrook,116.39,249.48,174.63,215.46,639.57,Unlimited,SBD,M,
Boys,124.74,2,Andre Carter,Beaumont West Brook,122.74,258.55,154.22,195.04,607.81,Unlimited,SBD,M,
Boys,124.74,3,Angel Rodriguez,Pasadena South Houston,117.48,244.94,158.76,197.31,601.01,Unlimited,SBD,M,
Boys,124.74,4,Felix Banda,Houston Northbrook,116.39,226.8,136.08,204.12,566.99,Unlimited,SBD,M,
Boys,124.74,5,Santiago Rodriguez,Houston Aldine,120.38,215.46,113.4,190.51,519.36,Unlimited,SBD,M,
Boys,124.74,6,Kevin Cox,Pasadena South Houston,115.03,174.63,90.72,183.7,449.06,Unlimited,SBD,M,
Boys,124.74,7,Manuel Ayala,Houston Aldine,112.22,183.7,88.45,167.83,439.98,Unlimited,SBD,M,
Boys,139.71,1,Nicholas Majano,Pasadena South Houston,132.45,170.1,115.67,170.1,455.86,Unlimited,SBD,M,
Boys,139.71,2,Maycol Aquino,Houston Northbrook,136.35,140.61,83.91,170.1,394.63,Unlimited,SBD,M,
Boys,139.71,3,Diego Gonzalez,Pasadena Rayburn,136.89,158.76,61.23,163.29,383.29,Unlimited,SBD,M,
Boys,139.71,4,Hunter Cedoz,Houston Aldine,131,111.13,74.84,120.2,306.17,Unlimited,SBD,M,
Boys,139.71+,1,Kevin Jackson,Beaumont West Brook,176.08,219.99,117.93,231.33,569.26,Unlimited,SBD,M,
