Division,WeightClassKg,Place,Name,Team,BodyweightKg,Best3SquatKg,Best3BenchKg,Best3DeadliftKg,TotalKg,Equipment,Event,Sex,BirthDate
Boys,51.71,1,Xavier Mondragon,McGregor,49.9,117.93,70.31,113.4,301.64,Unlimited,SBD,M,
Boys,51.71,2,Malakai Nguyen,Waxahachie Life,51.17,95.25,68.04,117.93,281.23,Unlimited,SBD,M,
Boys,51.71,3,Byron Pineda,Hillsboro,46.9,97.52,56.7,97.52,251.74,Unlimited,SBD,M,
Boys,51.71,4,Cristian Ontiveros,Crawford,51.44,83.91,54.43,104.33,242.67,Unlimited,SBD,M,
Boys,51.71,5,Aiden Pankow,Gatesville,46.81,95.25,49.9,90.72,235.87,Unlimited,SBD,M,
Boys,51.71,6,Will Sandifer,Bosqueville,45.18,83.91,52.16,79.38,215.46,Unlimited,SBD,M,
Boys,51.71,7,Julian Martinez,Waxahachie Life,46.36,63.5,58.97,83.91,206.38,Unlimited,SBD,M,
Boys,55.79,1,Thomas Herrera,West,55.61,181.44,108.86,188.24,478.54,Unlimited,SBD,M,
Boys,55.79,2,Jacob Havelka,McGregor,55.61,172.37,102.06,167.83,442.25,Unlimited,SBD,M,
Boys,55.79,3,Andrew Santoyo,Rice,55.16,149.69,92.99,165.56,408.23,Unlimited,SBD,M,
Boys,55.79,4,Robert Morales,Clifton,54.98,145.15,90.72,161.03,396.89,Unlimited,SBD,M,
Boys,55.79,5,Boo Hickok,Crawford,55.07,145.15,90.72,145.15,381.02,Unlimited,SBD,M,
Boys,55.79,6,Adrian Martinez,Waco La Vega,54.98,147.42,65.77,156.49,369.68,Unlimited,SBD,M,
Boys,55.79,7,Sergio Bucio,Gatesville,54.98,147.42,74.84,140.61,362.87,Unlimited,SBD,M,
Boys,55.79,8,Xavier Quintero,Clifton,55.07,127.01,72.57,138.35,337.93,Unlimited,SBD,M,
Boys,55.79,9,Nathan Holler,Waxahachie Life,55.34,122.47,88.45,124.74,335.66,Unlimited,SBD,M,
Boys,55.79,DQ,Keith McKenzie,China Spring,55.79,115.67,,,,Unlimited,SBD,M,
Boys,55.79,DQ,Miguel Pineda,Hillsboro,53.98,,,,,Unlimited,SBD,M,
Boys,59.87,1,Nicholas Thompson,West,58.69,181.44,140.61,217.72,539.77,Unlimited,SBD,M,
Boys,59.87,2,Caden Brister,Gatesville,56.7,176.9,88.45,183.7,449.06,Unlimited,SBD,M,
Boys,59.87,3,Erik Davis,Waco La Vega,59.24,158.76,97.52,183.7,439.98,Unlimited,SBD,M,
Boys,59.87,4,Judd New,Clifton,58.24,170.1,106.59,154.22,430.91,Unlimited,SBD,M,
Boys,59.87,5,Enrique Chavarria,Moody,59.6,170.1,92.99,167.83,430.91,Unlimited,SBD,M,
Boys,59.87,6,Ethan Rodgers,Crawford,57.52,142.88,77.11,142.88,362.87,Unlimited,SBD,M,
Boys,59.87,7,Dario Colon-Cruz,Clifton,58.06,127.01,79.38,156.49,362.87,Unlimited,SBD,M,
Boys,59.87,8,Langston Willis,West,57.33,133.81,70.31,147.42,351.53,Unlimited,SBD,M,
Boys,59.87,9,Lawson Symank,West,57.7,127.01,74.84,138.35,340.19,Unlimited,SBD,M,
Boys,59.87,10,Bruce Kent,West,58.97,136.08,63.5,120.2,319.78,Unlimited,SBD,M,
Boys,67.13,1,Krissangle Lopez,Rice,65.86,192.78,124.74,219.99,537.51,Unlimited,SBD,M,
Boys,67.13,2,Marc Valdez,McGregor,66.59,192.78,115.67,206.38,514.83,Unlimited,SBD,M,
Boys,67.13,3,Parker Montasser,West,66.5,190.51,108.86,195.04,494.42,Unlimited,SBD,M,
Boys,67.13,4,Cannon Cook,West,66.95,188.24,102.06,199.58,489.88,Unlimited,SBD,M,
Boys,67.13,5,Bolton Garrett,China Spring,67.13,163.29,106.59,213.19,483.08,Unlimited,SBD,M,
Boys,67.13,6,Nick Munoz,West,64.05,185.97,111.13,183.7,480.81,Unlimited,SBD,M,
Boys,67.13,7,Rudy Torres,McGregor,65.86,176.9,106.59,195.04,478.54,Unlimited,SBD,M,
Boys,67.13,8,Blake Franks,McGregor,66.22,174.63,115.67,181.44,471.74,Unlimited,SBD,M,
Boys,67.13,9,Landon Knox,Clifton,65.32,163.29,111.13,188.24,462.66,Unlimited,SBD,M,
Boys,67.13,10,Jahdiel Huerta,Rice,66.32,172.37,95.25,183.7,451.32,Unlimited,SBD,M,
Boys,67.13,11,Jonathn Bravo,Bosqueville,66.32,165.56,106.59,170.1,442.25,Unlimited,SBD,M,
Boys,67.13,12,Landon Ward,Clifton,65.41,158.76,102.06,176.9,437.72,Unlimited,SBD,M,
Boys,67.13,13,Eddie Gaona,Clifton,64.32,129.27,86.18,181.44,396.89,Unlimited,SBD,M,
Boys,67.13,14,Christyan Nors,West,63.78,147.42,86.18,147.42,381.02,Unlimited,SBD,M,
Boys,67.13,15,Austin Jenkins,Crawford,66.32,131.54,72.57,142.88,347,Unlimited,SBD,M,
Boys,67.13,16,Dutch Nobles,Bosqueville,67.13,129.27,63.5,149.69,342.46,Unlimited,SBD,M,
Boys,67.13,17,Sergio Mercado,Hillsboro,60.51,115.67,79.38,127.01,322.05,Unlimited,SBD,M,
Boys,67.13,18,Mikey Starich,Bosqueville,61.69,102.06,68.04,129.27,299.37,Unlimited,SBD,M,
Boys,74.84,1,Lj Hall,Gatesville,71.21,226.8,188.24,226.8,641.83,Unlimited,SBD,M,
Boys,74.84,2,Ben Brown,West,73.12,213.19,129.27,210.92,553.38,Unlimited,SBD,M,
Boys,74.84,3,Coy Klish,West,73.48,213.19,136.08,204.12,553.38,Unlimited,SBD,M,
Boys,74.84,4,Matthew Rodriguez,China Spring,72.21,201.85,142.88,192.78,537.51,Unlimited,SBD,M,
Boys,74.84,5,Sir Law Rodriguez,Robinson,69.85,185.97,111.13,215.46,512.56,Unlimited,SBD,M,
Boys,74.84,6,Jackson Ritz,Clifton,67.31,165.56,120.2,197.31,483.08,Unlimited,SBD,M,
Boys,74.84,7,Greg Jewell,Lorena,72.67,170.1,122.47,183.7,476.27,Unlimited,SBD,M,
Boys,74.84,8,Justice Adcox,Robinson,73.84,161.03,113.4,188.24,462.66,Unlimited,SBD,M,
Boys,74.84,9,Kyle Nors,West,74.48,183.7,115.67,163.29,462.66,Unlimited,SBD,M,
Boys,74.84,10,Trevor Clark,Hillsboro,73.94,170.1,113.4,176.9,460.4,Unlimited,SBD,M,
Boys,74.84,11,Cameron Patterson,Bosqueville,73.48,174.63,95.25,183.7,453.59,Unlimited,SBD,M,
Boys,74.84,12,Marion Perez,West,73.21,176.9,111.13,161.03,449.06,Unlimited,SBD,M,
Boys,74.84,13,Landyn Berry,Lorena,68.22,165.56,111.13,165.56,442.25,Unlimited,SBD,M,
Boys,74.84,14,Ryker Phythian,Crawford,72.12,167.83,104.33,167.83,439.98,Unlimited,SBD,M,
Boys,74.84,15,Kai Cook,West,69.31,161.03,95.25,172.37,428.64,Unlimited,SBD,M,
Boys,74.84,16,Keiton Tindell,Robinson,74.3,145.15,92.99,167.83,405.97,Unlimited,SBD,M,
Boys,74.84,17,Estaban Salas,Milford,74.84,129.27,95.25,158.76,383.29,Unlimited,SBD,M,
Boys,74.84,18,Carson Sleeper,Lorena,69.49,129.27,83.91,127.01,340.19,Unlimited,SBD,M,
Boys,74.84,19,Fabian Gutierrez,Bosqueville,70.85,120.2,63.5,124.74,308.44,Unlimited,SBD,M,
Boys,74.84,DQ,Branson Hollingsworth,West,71.76,145.15,,,,Unlimited,SBD,M,
Boys,74.84,DQ,Jaden Acevedo,Waxahachie Life,68.22,83.91,,,,Unlimited,SBD,M,
Boys,74.84,DQ,Joel Bordon,Moody,73.48,142.88,95.25,,,Unlimited,SBD,M,
Boys,74.84,DQ,Caleb Stinson,Moody,68.04,145.15,,,,Unlimited,SBD,M,
Boys,82.1,1,Devin Hill,Waco La Vega,82.1,222.26,154.22,226.8,603.28,Unlimited,SBD,M,
Boys,82.1,2,Landon Alonzo,China Spring,77.66,213.19,149.69,219.99,582.87,Unlimited,SBD,M,
Boys,82.1,3,Tyler Blakemore,West,79.56,217.72,127.01,226.8,571.53,Unlimited,SBD,M,
Boys,82.1,4,Bryice Polk,McGregor,81.65,213.19,161.03,192.78,566.99,Unlimited,SBD,M,
Boys,82.1,5,David Sims,Gatesville,81.1,206.38,131.54,201.85,539.77,Unlimited,SBD,M,
Boys,82.1,6,Brayden Mills,Gatesville,80.74,197.31,113.4,226.8,537.51,Unlimited,SBD,M,
Boys,82.1,7,Keith Daily,Moody,79.02,204.12,102.06,208.65,514.83,Unlimited,SBD,M,
Boys,82.1,8,Ethan Althoff,Crawford,78.74,190.51,120.2,183.7,494.42,Unlimited,SBD,M,
Boys,82.1,9,Edgar Ontiveros,McGregor,81.1,192.78,115.67,181.44,489.88,Unlimited,SBD,M,
Boys,82.1,10,Robert Atkins,China Spring,77.84,183.7,115.67,188.24,487.61,Unlimited,SBD,M,
Boys,82.1,11,Will Haferkamp,China Spring,80.74,170.1,129.27,167.83,467.2,Unlimited,SBD,M,
Boys,82.1,12,Hunter Petter,West,75.3,167.83,97.52,183.7,449.06,Unlimited,SBD,M,
Boys,82.1,13,Benjamin Buzan,Robinson,77.66,147.42,113.4,158.76,419.57,Unlimited,SBD,M,
Boys,82.1,14,Benny Jordan,Crawford,77.02,147.42,68.04,183.7,399.16,Unlimited,SBD,M,
Boys,82.1,15,Gabe Perez,West,78.38,147.42,83.91,145.15,376.48,Unlimited,SBD,M,
Boys,82.1,16,Austin Sanders,Bosqueville,79.74,127.01,65.77,142.88,335.66,Unlimited,SBD,M,
Boys,82.1,17,Noah Reznicek,West,81.01,92.99,56.7,99.79,249.48,Unlimited,SBD,M,
Boys,82.1,DQ,Sandon Thompkins,Hillsboro,80.92,,,,,Unlimited,SBD,M,
Boys,82.1,DQ,Levi Knox,Clifton,79.74,197.31,174.63,,,Unlimited,SBD,M,
Boys,89.81,1,Christian Mack,Waxahachie Life,85.82,265.35,179.17,272.16,716.68,Unlimited,SBD,M,
Boys,89.81,2,Juan Paredes,Rice,88.09,263.08,170.1,235.87,669.05,Unlimited,SBD,M,
Boys,89.81,3,Jw Arnold,McGregor,89.18,242.67,165.56,233.6,641.83,Unlimited,SBD,M,
Boys,89.81,4,Jeremiah Jones,Waco La Vega,88.27,247.21,156.49,215.46,619.15,Unlimited,SBD,M,
Boys,89.81,5,Corey Burns,Gatesville,86.27,215.46,149.69,219.99,585.13,Unlimited,SBD,M,
Boys,89.81,6,Trenton Brooks,Hillsboro,86.36,188.24,147.42,210.92,546.58,Unlimited,SBD,M,
Boys,89.81,7,Nathan Elliott,Gatesville,87.45,213.19,145.15,188.24,546.58,Unlimited,SBD,M,
Boys,89.81,8,Ian Vicencio,Hillsboro,86.18,208.65,127.01,206.38,542.04,Unlimited,SBD,M,
Boys,89.81,9,Zach Ijams,West,87.72,206.38,111.13,201.85,519.36,Unlimited,SBD,M,
Boys,89.81,10,Anthony Hernandez,West,83.28,204.12,122.47,181.44,508.02,Unlimited,SBD,M,
Boys,89.81,11,Brett Holloman,West,89.54,192.78,127.01,183.7,503.49,Unlimited,SBD,M,
Boys,89.81,12,Hayden Strahan,McGregor,88.63,192.78,115.67,188.24,496.68,Unlimited,SBD,M,
Boys,89.81,13,Ivan Galindo,Clifton,88.63,181.44,104.33,158.76,444.52,Unlimited,SBD,M,
Boys,89.81,14,Jaydin Hicks,Moody,83.55,147.42,81.65,138.35,367.41,Unlimited,SBD,M,
Boys,89.81,DQ,Dylan Anderson,Robinson,86.18,149.69,,,,Unlimited,SBD,M,
Boys,99.79,1,Riley Finney,Clifton,95.89,260.82,229.06,244.94,734.82,Unlimited,SBD,M,
Boys,99.79,2,Wyatt Jones,Lorena,97.79,285.76,172.37,272.16,730.28,Unlimited,SBD,M,
Boys,99.79,3,Cade Balch,Waco La Vega,97.25,204.12,165.56,233.6,603.28,Unlimited,SBD,M,
Boys,99.79,4,Steven Druppal,McGregor,94.17,240.4,145.15,210.92,596.47,Unlimited,SBD,M,
Boys,99.79,5,Ray Jones,Gatesville,96.25,226.8,147.42,222.26,596.47,Unlimited,SBD,M,
Boys,99.79,6,Tristan Williams,Lorena,96.8,226.8,154.22,206.38,587.4,Unlimited,SBD,M,
Boys,99.79,7,Jake Stanford,Crawford,90.36,217.72,129.27,215.46,562.45,Unlimited,SBD,M,
Boys,99.79,8,Joseph Ihry,Lorena,96.16,206.38,154.22,183.7,544.31,Unlimited,SBD,M,
Boys,99.79,9,Kaden Coffman,Gatesville,96.43,226.8,136.08,165.56,528.44,Unlimited,SBD,M,
Boys,99.79,10,Shayne Adams,West,90.08,199.58,111.13,213.19,523.9,Unlimited,SBD,M,
Boys,99.79,11,Marcus Jackson,Waco La Vega,90.26,190.51,151.95,181.44,523.9,Unlimited,SBD,M,
Boys,99.79,12,Julian Hernandez,Hillsboro,95.35,199.58,131.54,188.24,519.36,Unlimited,SBD,M,
Boys,99.79,13,Hillario Mata,Waco La Vega,95.16,199.58,111.13,199.58,510.29,Unlimited,SBD,M,
Boys,99.79,14,Jeremiah Cruz,McGregor,93.17,188.24,122.47,192.78,503.49,Unlimited,SBD,M,
Boys,99.79,15,Maxwell Robinson,Robinson,95.35,151.95,97.52,183.7,433.18,Unlimited,SBD,M,
Boys,99.79,16,Trenton Ketchum,Bosqueville,95.25,165.56,113.4,151.95,430.91,Unlimited,SBD,M,
Boys,99.79,17,Elias Lara,Waxahachie Life,91.72,170.1,83.91,170.1,424.11,Unlimited,SBD,M,
Boys,99.79,18,Noah Smith,Crawford,94.8,167.83,88.45,154.22,410.5,Unlimited,SBD,M,
Boys,99.79,19,Chad Kelsey,Crawford,92.9,149.69,86.18,158.76,394.63,Unlimited,SBD,M,
Boys,99.79,20,Joshua Tobey,Waxahachie Life,94.26,122.47,108.86,151.95,383.29,Unlimited,SBD,M,
Boys,99.79,DQ,Tim Morgan,China Spring,99.61,206.38,,,,Unlimited,SBD,M,
Boys,99.79,DQ,Landyn Gerick,China Spring,95.16,,,,,Unlimited,SBD,M,
Boys,109.77,1,Nolan Baden,Lorena,105.41,242.67,170.1,204.12,616.89,Unlimited,SBD,M,
Boys,109.77,2,Llyod Buck,Lorena,106.23,240.4,154.22,217.72,612.35,Unlimited,SBD,M,
Boys,109.77,3,Cooper Key,Lorena,104.05,240.4,136.08,217.72,594.21,Unlimited,SBD,M,
Boys,109.77,4,Joseph McClanahan,China Spring,104.42,188.24,154.22,249.48,591.94,Unlimited,SBD,M,
Boys,109.77,5,Esequiel Castro,Waco La Vega,105.23,226.8,142.88,219.99,589.67,Unlimited,SBD,M,
Boys,109.77,6,Bryson Leal,China Spring,102.15,197.31,145.15,208.65,551.11,Unlimited,SBD,M,
Boys,109.77,7,Hector Quintero,Clifton,106.5,206.38,131.54,204.12,542.04,Unlimited,SBD,M,
Boys,109.77,8,Michael Bryant,Waco La Vega,106.87,204.12,115.67,183.7,503.49,Unlimited,SBD,M,
Boys,109.77,9,Mason Phythian,Crawford,104.51,163.29,106.59,170.1,439.98,Unlimited,SBD,M,
Boys,109.77,10,Ty Hancock,West,108.95,174.63,102.06,158.76,435.45,Unlimited,SBD,M,
Boys,124.74,1,Kaden Kemp,China Spring,120.75,240.4,208.65,217.72,666.78,Unlimited,SBD,M,
Boys,124.74,2,Tyler Wachtendorf,Lorena,120.93,263.08,190.51,204.12,657.71,Unlimited,SBD,M,
Boys,124.74,3,Pablo Rodriguez,Waco La Vega,122.2,256.28,174.63,197.31,628.23,Unlimited,SBD,M,
Boys,124.74,4,Carter Norman,Lorena,118.75,247.21,145.15,226.8,619.15,Unlimited,SBD,M,
Boys,124.74,5,Jonathan Killion,Waxahachie Life,123.74,192.78,136.08,183.7,512.56,Unlimited,SBD,M,
Boys,124.74,6,Zaith Gonzalez,Waco La Vega,116.85,226.8,120.2,161.03,508.02,Unlimited,SBD,M,
Boys,139.71,1,Eythan Thompson,Waco La Vega,139.07,331.12,204.12,281.23,816.47,Unlimited,SBD,M,
Boys,139.71,2,Jackson Blackwell,Lorena,137.53,317.51,217.72,265.35,800.59,Unlimited,SBD,M,
Boys,139.71,3,Lucas Vance,McGregor,129.09,251.74,158.76,206.38,616.89,Unlimited,SBD,M,
Boys,139.71,4,Xavier Cook,Hillsboro,126.64,226.8,102.06,206.38,535.24,Unlimited,SBD,M,
Boys,139.71,5,Kasen Ferguson,Bosqueville,127.28,217.72,108.86,181.44,508.02,Unlimited,SBD,M,
Boys,139.71,6,Issak Velasquez,Crawford,128.82,190.51,122.47,170.1,483.08,Unlimited,SBD,M,
Boys,139.71,7,Dylan McAdams,China Spring,129.27,165.56,149.69,163.29,478.54,Unlimited,SBD,M,
Boys,139.71,8,Hayden Barker,Waxahachie Life,128.46,120.2,106.59,136.08,362.87,Unlimited,SBD,M,
Boys,139.71+,1,Zach Bryant,Gatesville,147.05,297.1,219.99,240.4,757.5,Unlimited,SBD,M,
Boys,139.71+,DQ,Dominic Lara,Hillsboro,153.77,,,,,Unlimited,SBD,M,
